{"data":[{"name":"Yogurt Raita","category":{"name":"Salad","category_id":15511,"sub_category_id":null},"unit":{"name":"1"},"sku":"138490","image":"1771080458_1-yogurt-raita.jpg","image_url":"https:\/\/hub.saaed.app\/uploads\/img\/1771080458_1-yogurt-raita.jpg","type":"single","is_inactive":0,"not_for_selling":0,"product_description":null,"tax":{"id":123,"name":"\u0636\u0631\u064a\u0628\u0629 \u0627\u0644\u0642\u064a\u0645\u0629 \u0627\u0644\u0645\u0636\u0627\u0641\u0629","amount":"0.15","tax_type":"inclusive"},"product_variations":[{"id":140355,"name":"DUMMY","name_en":null,"variations":[{"id":141001,"name":"DUMMY","name_en":null,"sku":"138490","picture":"https:\/\/hub.saaed.app\/img\/default.png","price":{"default_purchase_price":"0.0000000000","dpp_inc_tax":"0.0000","profit_percent":"25.0000","default_sell_price":"6.9565217391","sell_price_inc_tax":"8.0000"}}]}],"modifiers":[]},{"name":"Fresh Garden Salad","category":{"name":"Salad","category_id":15511,"sub_category_id":null},"unit":{"name":"1"},"sku":"138491","image":"1771077230_2-fresh-garden-salad.jpg","image_url":"https:\/\/hub.saaed.app\/uploads\/img\/1771077230_2-fresh-garden-salad.jpg","type":"single","is_inactive":0,"not_for_selling":0,"product_description":null,"tax":{"id":123,"name":"\u0636\u0631\u064a\u0628\u0629 \u0627\u0644\u0642\u064a\u0645\u0629 \u0627\u0644\u0645\u0636\u0627\u0641\u0629","amount":"0.15","tax_type":"inclusive"},"product_variations":[{"id":140356,"name":"DUMMY","name_en":null,"variations":[{"id":141002,"name":"DUMMY","name_en":null,"sku":"138491","picture":"https:\/\/hub.saaed.app\/img\/default.png","price":{"default_purchase_price":"0.0000000000","dpp_inc_tax":"0.0000","profit_percent":"25.0000","default_sell_price":"13.9130434783","sell_price_inc_tax":"16.0000"}}]}],"modifiers":[]},{"name":"Yogurt Salad","category":{"name":"Salad","category_id":15511,"sub_category_id":null},"unit":{"name":"1"},"sku":"138492","image":"1771080419_3-yogurt-salad.jpg","image_url":"https:\/\/hub.saaed.app\/uploads\/img\/1771080419_3-yogurt-salad.jpg","type":"single","is_inactive":0,"not_for_selling":0,"product_description":"<p>Plain yogurt with a slight touch of cumin seeds &amp; salt<\/p>","tax":{"id":123,"name":"\u0636\u0631\u064a\u0628\u0629 \u0627\u0644\u0642\u064a\u0645\u0629 \u0627\u0644\u0645\u0636\u0627\u0641\u0629","amount":"0.15","tax_type":"inclusive"},"product_variations":[{"id":140357,"name":"DUMMY","name_en":null,"variations":[{"id":141003,"name":"DUMMY","name_en":null,"sku":"138492","picture":"https:\/\/hub.saaed.app\/img\/default.png","price":{"default_purchase_price":"0.0000000000","dpp_inc_tax":"0.0000","profit_percent":"25.0000","default_sell_price":"13.9130434783","sell_price_inc_tax":"16.0000"}}]}],"modifiers":[]},{"name":"Kachumber Salad","category":{"name":"Salad","category_id":15511,"sub_category_id":null},"unit":{"name":"1"},"sku":"138493","image":"1771078289_4-kachumer-salad.jpg","image_url":"https:\/\/hub.saaed.app\/uploads\/img\/1771078289_4-kachumer-salad.jpg","type":"single","is_inactive":0,"not_for_selling":0,"product_description":"<p>A healthy combination of vegetables along with lemon wedge<\/p>","tax":{"id":123,"name":"\u0636\u0631\u064a\u0628\u0629 \u0627\u0644\u0642\u064a\u0645\u0629 \u0627\u0644\u0645\u0636\u0627\u0641\u0629","amount":"0.15","tax_type":"inclusive"},"product_variations":[{"id":140358,"name":"DUMMY","name_en":null,"variations":[{"id":141004,"name":"DUMMY","name_en":null,"sku":"138493","picture":"https:\/\/hub.saaed.app\/img\/default.png","price":{"default_purchase_price":"0.0000000000","dpp_inc_tax":"0.0000","profit_percent":"25.0000","default_sell_price":"15.6521739130","sell_price_inc_tax":"18.0000"}}]}],"modifiers":[]},{"name":"Hummus With Bread","category":{"name":"Salad","category_id":15511,"sub_category_id":null},"unit":{"name":"1"},"sku":"138494","image":"1771077950_5-hummus-with-bread.jpg","image_url":"https:\/\/hub.saaed.app\/uploads\/img\/1771077950_5-hummus-with-bread.jpg","type":"single","is_inactive":0,"not_for_selling":0,"product_description":"<p>Homemade yogurt with a slight touch of cumin seeds<\/p>","tax":{"id":123,"name":"\u0636\u0631\u064a\u0628\u0629 \u0627\u0644\u0642\u064a\u0645\u0629 \u0627\u0644\u0645\u0636\u0627\u0641\u0629","amount":"0.15","tax_type":"inclusive"},"product_variations":[{"id":140359,"name":"DUMMY","name_en":null,"variations":[{"id":141005,"name":"DUMMY","name_en":null,"sku":"138494","picture":"https:\/\/hub.saaed.app\/img\/default.png","price":{"default_purchase_price":"0.0000000000","dpp_inc_tax":"0.0000","profit_percent":"25.0000","default_sell_price":"15.6521739130","sell_price_inc_tax":"18.0000"}}]}],"modifiers":[]},{"name":"Tabbouleh","category":{"name":"Salad","category_id":15511,"sub_category_id":null},"unit":{"name":"1"},"sku":"138495","image":"1771132005_6-tabbouleh.jpg","image_url":"https:\/\/hub.saaed.app\/uploads\/img\/1771132005_6-tabbouleh.jpg","type":"single","is_inactive":0,"not_for_selling":0,"product_description":"<p>Our famous fresh salad drizzled with cucumbers, carrots &amp; onion with lemon juice &amp; pepper<\/p>","tax":{"id":123,"name":"\u0636\u0631\u064a\u0628\u0629 \u0627\u0644\u0642\u064a\u0645\u0629 \u0627\u0644\u0645\u0636\u0627\u0641\u0629","amount":"0.15","tax_type":"inclusive"},"product_variations":[{"id":140360,"name":"DUMMY","name_en":null,"variations":[{"id":141006,"name":"DUMMY","name_en":null,"sku":"138495","picture":"https:\/\/hub.saaed.app\/img\/default.png","price":{"default_purchase_price":"0.0000000000","dpp_inc_tax":"0.0000","profit_percent":"25.0000","default_sell_price":"15.6521739130","sell_price_inc_tax":"18.0000"}}]}],"modifiers":[]},{"name":"Lava Pappri Chaat","category":{"name":"Salad","category_id":15511,"sub_category_id":null},"unit":{"name":"1"},"sku":"138496","image":"1771078911_7-lava-papri-chaat.jpg","image_url":"https:\/\/hub.saaed.app\/uploads\/img\/1771078911_7-lava-papri-chaat.jpg","type":"single","is_inactive":0,"not_for_selling":0,"product_description":"<p>Traditional Arabic starter combinations of chickpeas, tahina, garlic, lemon juice &amp; olive oil<\/p>","tax":{"id":123,"name":"\u0636\u0631\u064a\u0628\u0629 \u0627\u0644\u0642\u064a\u0645\u0629 \u0627\u0644\u0645\u0636\u0627\u0641\u0629","amount":"0.15","tax_type":"inclusive"},"product_variations":[{"id":140361,"name":"DUMMY","name_en":null,"variations":[{"id":141007,"name":"DUMMY","name_en":null,"sku":"138496","picture":"https:\/\/hub.saaed.app\/img\/default.png","price":{"default_purchase_price":"0.0000000000","dpp_inc_tax":"0.0000","profit_percent":"25.0000","default_sell_price":"19.1304347826","sell_price_inc_tax":"22.0000"}}]}],"modifiers":[]},{"name":"Desi Papri Crunch Salad","category":{"name":"Salad","category_id":15511,"sub_category_id":null},"unit":{"name":"1"},"sku":"138497","image":"1771076740_8-desi-papdri-crunch-salad.jpg","image_url":"https:\/\/hub.saaed.app\/uploads\/img\/1771076740_8-desi-papdri-crunch-salad.jpg","type":"single","is_inactive":0,"not_for_selling":0,"product_description":"<p>Parsley, fresh lemon juice, bulgur wheat, olive oil<\/p>","tax":{"id":123,"name":"\u0636\u0631\u064a\u0628\u0629 \u0627\u0644\u0642\u064a\u0645\u0629 \u0627\u0644\u0645\u0636\u0627\u0641\u0629","amount":"0.15","tax_type":"inclusive"},"product_variations":[{"id":140362,"name":"DUMMY","name_en":null,"variations":[{"id":141008,"name":"DUMMY","name_en":null,"sku":"138497","picture":"https:\/\/hub.saaed.app\/img\/default.png","price":{"default_purchase_price":"0.0000000000","dpp_inc_tax":"0.0000","profit_percent":"25.0000","default_sell_price":"19.1304347826","sell_price_inc_tax":"22.0000"}}]}],"modifiers":[]},{"name":"Chicken Apple Salad","category":{"name":"Salad","category_id":15511,"sub_category_id":null},"unit":{"name":"1"},"sku":"138498","image":"1771075639_9-chicken-apple-salad.jpg","image_url":"https:\/\/hub.saaed.app\/uploads\/img\/1771075639_9-chicken-apple-salad.jpg","type":"single","is_inactive":0,"not_for_selling":0,"product_description":"<p>Combination of crunchy, tangy, sweet and spicy flavors.<\/p>","tax":{"id":123,"name":"\u0636\u0631\u064a\u0628\u0629 \u0627\u0644\u0642\u064a\u0645\u0629 \u0627\u0644\u0645\u0636\u0627\u0641\u0629","amount":"0.15","tax_type":"inclusive"},"product_variations":[{"id":140363,"name":"DUMMY","name_en":null,"variations":[{"id":141009,"name":"DUMMY","name_en":null,"sku":"138498","picture":"https:\/\/hub.saaed.app\/img\/default.png","price":{"default_purchase_price":"0.0000000000","dpp_inc_tax":"0.0000","profit_percent":"25.0000","default_sell_price":"20.8695652174","sell_price_inc_tax":"24.0000"}}]}],"modifiers":[]},{"name":"Fattoush Salad","category":{"name":"Salad","category_id":15511,"sub_category_id":null},"unit":{"name":"1"},"sku":"138499","image":"1771076973_10-fatosh.jpg","image_url":"https:\/\/hub.saaed.app\/uploads\/img\/1771076973_10-fatosh.jpg","type":"single","is_inactive":0,"not_for_selling":0,"product_description":"<p>Classic chopped kachumar cucumber,onion,tomato with crispy fried dough wafers called pappri<\/p>","tax":{"id":123,"name":"\u0636\u0631\u064a\u0628\u0629 \u0627\u0644\u0642\u064a\u0645\u0629 \u0627\u0644\u0645\u0636\u0627\u0641\u0629","amount":"0.15","tax_type":"inclusive"},"product_variations":[{"id":140364,"name":"DUMMY","name_en":null,"variations":[{"id":141010,"name":"DUMMY","name_en":null,"sku":"138499","picture":"https:\/\/hub.saaed.app\/img\/default.png","price":{"default_purchase_price":"0.0000000000","dpp_inc_tax":"0.0000","profit_percent":"25.0000","default_sell_price":"21.7391304348","sell_price_inc_tax":"25.0000"}}]}],"modifiers":[]},{"name":"Caesar Tikka Salad","category":{"name":"Salad","category_id":15511,"sub_category_id":null},"unit":{"name":"1"},"sku":"138500","image":"1771075030_11-caesar-tikka-salad.jpg","image_url":"https:\/\/hub.saaed.app\/uploads\/img\/1771075030_11-caesar-tikka-salad.jpg","type":"single","is_inactive":0,"not_for_selling":0,"product_description":"<p>Marinated chicken with apple mayonnaise and herbs<\/p>","tax":{"id":123,"name":"\u0636\u0631\u064a\u0628\u0629 \u0627\u0644\u0642\u064a\u0645\u0629 \u0627\u0644\u0645\u0636\u0627\u0641\u0629","amount":"0.15","tax_type":"inclusive"},"product_variations":[{"id":140365,"name":"DUMMY","name_en":null,"variations":[{"id":141011,"name":"DUMMY","name_en":null,"sku":"138500","picture":"https:\/\/hub.saaed.app\/img\/default.png","price":{"default_purchase_price":"0.0000000000","dpp_inc_tax":"0.0000","profit_percent":"25.0000","default_sell_price":"24.3478260870","sell_price_inc_tax":"28.0000"}}]}],"modifiers":[]},{"name":"Beef Vegetables Salad","category":{"name":"Salad","category_id":15511,"sub_category_id":null},"unit":{"name":"1"},"sku":"138501","image":"1771064519_12-beef-vegetables-salad.jpg","image_url":"https:\/\/hub.saaed.app\/uploads\/img\/1771064519_12-beef-vegetables-salad.jpg","type":"single","is_inactive":0,"not_for_selling":0,"product_description":"<p>Olive oil, fresh lemon juice, garlic, sumac, and pomegranate molasses<\/p>","tax":{"id":123,"name":"\u0636\u0631\u064a\u0628\u0629 \u0627\u0644\u0642\u064a\u0645\u0629 \u0627\u0644\u0645\u0636\u0627\u0641\u0629","amount":"0.15","tax_type":"inclusive"},"product_variations":[{"id":140366,"name":"DUMMY","name_en":null,"variations":[{"id":141012,"name":"DUMMY","name_en":null,"sku":"138501","picture":"https:\/\/hub.saaed.app\/img\/default.png","price":{"default_purchase_price":"0.0000000000","dpp_inc_tax":"0.0000","profit_percent":"25.0000","default_sell_price":"27.8260869565","sell_price_inc_tax":"32.0000"}}]}],"modifiers":[]},{"name":"Murgh Yakhani (Non-Veg)","category":{"name":"Soups & Starters","category_id":15512,"sub_category_id":null},"unit":{"name":"1"},"sku":"138502","image":"1771082165_13-murgh-yakhani-non-veg.jpg","image_url":"https:\/\/hub.saaed.app\/uploads\/img\/1771082165_13-murgh-yakhani-non-veg.jpg","type":"single","is_inactive":0,"not_for_selling":0,"product_description":"<p>Marinated grilled chicken ice berg and Cesar dressing with garlic bread<\/p>","tax":{"id":123,"name":"\u0636\u0631\u064a\u0628\u0629 \u0627\u0644\u0642\u064a\u0645\u0629 \u0627\u0644\u0645\u0636\u0627\u0641\u0629","amount":"0.15","tax_type":"inclusive"},"product_variations":[{"id":140367,"name":"DUMMY","name_en":null,"variations":[{"id":141013,"name":"DUMMY","name_en":null,"sku":"138502","picture":"https:\/\/hub.saaed.app\/img\/default.png","price":{"default_purchase_price":"0.0000000000","dpp_inc_tax":"0.0000","profit_percent":"25.0000","default_sell_price":"15.6521739130","sell_price_inc_tax":"18.0000"}}]}],"modifiers":[]},{"name":"Daal Shorba (Vegetarian)","category":{"name":"Soups & Starters","category_id":15512,"sub_category_id":null},"unit":{"name":"1"},"sku":"138503","image":"1771076486_14-daal-shorba-veg.jpg","image_url":"https:\/\/hub.saaed.app\/uploads\/img\/1771076486_14-daal-shorba-veg.jpg","type":"single","is_inactive":0,"not_for_selling":0,"product_description":"<p>Tender line slice of beef served over a fresh mix of crisp vegetables<\/p>","tax":{"id":123,"name":"\u0636\u0631\u064a\u0628\u0629 \u0627\u0644\u0642\u064a\u0645\u0629 \u0627\u0644\u0645\u0636\u0627\u0641\u0629","amount":"0.15","tax_type":"inclusive"},"product_variations":[{"id":140368,"name":"DUMMY","name_en":null,"variations":[{"id":141014,"name":"DUMMY","name_en":null,"sku":"138503","picture":"https:\/\/hub.saaed.app\/img\/default.png","price":{"default_purchase_price":"0.0000000000","dpp_inc_tax":"0.0000","profit_percent":"25.0000","default_sell_price":"15.6521739130","sell_price_inc_tax":"18.0000"}}]}],"modifiers":[]},{"name":"Eight Treasure Soup","category":{"name":"Soups & Starters","category_id":15512,"sub_category_id":null},"unit":{"name":"1"},"sku":"138504","image":"1771076822_15-eight-treasure-soup.jpg","image_url":"https:\/\/hub.saaed.app\/uploads\/img\/1771076822_15-eight-treasure-soup.jpg","type":"single","is_inactive":0,"not_for_selling":0,"product_description":"<p>Clear chicken broth soup perfect for the weight watchers<\/p>","tax":{"id":123,"name":"\u0636\u0631\u064a\u0628\u0629 \u0627\u0644\u0642\u064a\u0645\u0629 \u0627\u0644\u0645\u0636\u0627\u0641\u0629","amount":"0.15","tax_type":"inclusive"},"product_variations":[{"id":140369,"name":"DUMMY","name_en":null,"variations":[{"id":141015,"name":"DUMMY","name_en":null,"sku":"138504","picture":"https:\/\/hub.saaed.app\/img\/default.png","price":{"default_purchase_price":"0.0000000000","dpp_inc_tax":"0.0000","profit_percent":"25.0000","default_sell_price":"19.1304347826","sell_price_inc_tax":"22.0000"}}]}],"modifiers":[]},{"name":"Cream of Mushroom Soup","category":{"name":"Soups & Starters","category_id":15512,"sub_category_id":null},"unit":{"name":"1"},"sku":"138505","image":"1771076383_16-cream-of-mushroom-soup.jpg","image_url":"https:\/\/hub.saaed.app\/uploads\/img\/1771076383_16-cream-of-mushroom-soup.jpg","type":"single","is_inactive":0,"not_for_selling":0,"product_description":"<p>Mixture of thick masoor lentil, corn flour, butter, lemon juice, black pepper &amp; salt<\/p>","tax":{"id":123,"name":"\u0636\u0631\u064a\u0628\u0629 \u0627\u0644\u0642\u064a\u0645\u0629 \u0627\u0644\u0645\u0636\u0627\u0641\u0629","amount":"0.15","tax_type":"inclusive"},"product_variations":[{"id":140370,"name":"DUMMY","name_en":null,"variations":[{"id":141016,"name":"DUMMY","name_en":null,"sku":"138505","picture":"https:\/\/hub.saaed.app\/img\/default.png","price":{"default_purchase_price":"0.0000000000","dpp_inc_tax":"0.0000","profit_percent":"25.0000","default_sell_price":"19.1304347826","sell_price_inc_tax":"22.0000"}}]}],"modifiers":[]},{"name":"Seafood Thermidor Soup","category":{"name":"Soups & Starters","category_id":15512,"sub_category_id":null},"unit":{"name":"1"},"sku":"138506","image":"1771083247_17-seafood-thermidor-soup.jpg","image_url":"https:\/\/hub.saaed.app\/uploads\/img\/1771083247_17-seafood-thermidor-soup.jpg","type":"single","is_inactive":0,"not_for_selling":0,"product_description":"<p>Chicken served with fresh vegetable thick with corn flour, egg and sauces<\/p>","tax":{"id":123,"name":"\u0636\u0631\u064a\u0628\u0629 \u0627\u0644\u0642\u064a\u0645\u0629 \u0627\u0644\u0645\u0636\u0627\u0641\u0629","amount":"0.15","tax_type":"inclusive"},"product_variations":[{"id":140371,"name":"DUMMY","name_en":null,"variations":[{"id":141017,"name":"DUMMY","name_en":null,"sku":"138506","picture":"https:\/\/hub.saaed.app\/img\/default.png","price":{"default_purchase_price":"0.0000000000","dpp_inc_tax":"0.0000","profit_percent":"25.0000","default_sell_price":"27.8260869565","sell_price_inc_tax":"32.0000"}}]}],"modifiers":[]},{"name":"French Fries","category":{"name":"Soups & Starters","category_id":15512,"sub_category_id":null},"unit":{"name":"1"},"sku":"138507","image":"1771077185_18-french-fries.jpg","image_url":"https:\/\/hub.saaed.app\/uploads\/img\/1771077185_18-french-fries.jpg","type":"single","is_inactive":0,"not_for_selling":0,"product_description":"<p>Cream of mushroom soup made from scratch with freshly sliced mushrooms, onion, garlic, stock, cream<\/p>","tax":{"id":123,"name":"\u0636\u0631\u064a\u0628\u0629 \u0627\u0644\u0642\u064a\u0645\u0629 \u0627\u0644\u0645\u0636\u0627\u0641\u0629","amount":"0.15","tax_type":"inclusive"},"product_variations":[{"id":140372,"name":"DUMMY","name_en":null,"variations":[{"id":141018,"name":"DUMMY","name_en":null,"sku":"138507","picture":"https:\/\/hub.saaed.app\/img\/default.png","price":{"default_purchase_price":"0.0000000000","dpp_inc_tax":"0.0000","profit_percent":"25.0000","default_sell_price":"12.1739130435","sell_price_inc_tax":"14.0000"}}]}],"modifiers":[]},{"name":"Chicken Nuggets","category":{"name":"Soups & Starters","category_id":15512,"sub_category_id":null},"unit":{"name":"1"},"sku":"138508","image":"1771075747_19-chicken-nuggets.jpg","image_url":"https:\/\/hub.saaed.app\/uploads\/img\/1771075747_19-chicken-nuggets.jpg","type":"single","is_inactive":0,"not_for_selling":0,"product_description":"<p>Creamy, cheesy preparation served with chunks of seafood (Prawns &amp; Fish)<\/p>","tax":{"id":123,"name":"\u0636\u0631\u064a\u0628\u0629 \u0627\u0644\u0642\u064a\u0645\u0629 \u0627\u0644\u0645\u0636\u0627\u0641\u0629","amount":"0.15","tax_type":"inclusive"},"product_variations":[{"id":140373,"name":"DUMMY","name_en":null,"variations":[{"id":141019,"name":"DUMMY","name_en":null,"sku":"138508","picture":"https:\/\/hub.saaed.app\/img\/default.png","price":{"default_purchase_price":"0.0000000000","dpp_inc_tax":"0.0000","profit_percent":"25.0000","default_sell_price":"17.3913043478","sell_price_inc_tax":"20.0000"}}]}],"modifiers":[]},{"name":"Crispy Chicken Wings","category":{"name":"Soups & Starters","category_id":15512,"sub_category_id":null},"unit":{"name":"1"},"sku":"138509","image":"1771076412_20-crispy-chicken-wings.jpg","image_url":"https:\/\/hub.saaed.app\/uploads\/img\/1771076412_20-crispy-chicken-wings.jpg","type":"single","is_inactive":0,"not_for_selling":0,"product_description":"<p>Plain potato fries with ketchup, all time kid&rsquo;s favorite<\/p>","tax":{"id":123,"name":"\u0636\u0631\u064a\u0628\u0629 \u0627\u0644\u0642\u064a\u0645\u0629 \u0627\u0644\u0645\u0636\u0627\u0641\u0629","amount":"0.15","tax_type":"inclusive"},"product_variations":[{"id":140374,"name":"DUMMY","name_en":null,"variations":[{"id":141020,"name":"DUMMY","name_en":null,"sku":"138509","picture":"https:\/\/hub.saaed.app\/img\/default.png","price":{"default_purchase_price":"0.0000000000","dpp_inc_tax":"0.0000","profit_percent":"25.0000","default_sell_price":"19.1304347826","sell_price_inc_tax":"22.0000"}}]}],"modifiers":[]}],"error":"","pagination":{"total":174,"count":20,"per_page":20,"current_page":1,"last_page":9}}